[
  {
    "id": 1,
    "name": "stack",
    "path": "svg/hult-Artboard-1.svg"
  },
  {
    "id": 2,
    "name": "bubble",
    "path": "svg/hult-Artboard-2.svg"
  },
  {
    "id": 3,
    "name": "roll",
    "path": "svg/hult-Artboard-3.svg"
  },
  {
    "id": 4,
    "name": "spin",
    "path": "svg/hult-Artboard-4.svg"
  },
  {
    "id": 5,
    "name": "quilt",
    "path": "svg/hult-Artboard-5.svg"
  },
  {
    "id": 6,
    "name": "topple",
    "path": "svg/hult-Artboard-6.svg"
  },
  {
    "id": 7,
    "name": "triangle",
    "path": "svg/hult-Artboard-7.svg"
  },
  {
    "id": 8,
    "name": "flare",
    "path": "svg/hult-Artboard-8.svg"
  },
  {
    "id": 9,
    "name": "venn",
    "path": "svg/hult-Artboard-9.svg"
  },
  {
    "id": 10,
    "name": "balance",
    "path": "svg/hult-Artboard-10.svg"
  },
  {
    "id": 11,
    "name": "quad",
    "path": "svg/hult-Artboard-11.svg"
  },
  {
    "id": 12,
    "name": "squiggle",
    "path": "svg/hult-Artboard-12.svg"
  },
  {
    "id": 13,
    "name": "burst",
    "path": "svg/hult-Artboard-13.svg"
  },
  {
    "id": 14,
    "name": "heap",
    "path": "svg/hult-Artboard-14.svg"
  },
  {
    "id": 15,
    "name": "trend",
    "path": "svg/hult-Artboard-15.svg"
  },
  {
    "id": 16,
    "name": "skinny",
    "path": "svg/hult-Artboard-16.svg"
  },
  {
    "id": 17,
    "name": "bars",
    "path": "svg/hult-Artboard-17.svg"
  },
  {
    "id": 18,
    "name": "nucleus",
    "path": "svg/hult-Artboard-18.svg"
  },
  {
    "id": 19,
    "name": "palette",
    "path": "svg/hult-Artboard-19.svg"
  },
  {
    "id": 20,
    "name": "wool",
    "path": "svg/hult-Artboard-20.svg"
  },
  {
    "id": 21,
    "name": "easel",
    "path": "svg/hult-Artboard-21.svg"
  },
  {
    "id": 22,
    "name": "scale",
    "path": "svg/hult-Artboard-22.svg"
  },
  {
    "id": 23,
    "name": "cross",
    "path": "svg/hult-Artboard-23.svg"
  },
  {
    "id": 24,
    "name": "horizon",
    "path": "svg/hult-Artboard-24.svg"
  },
  {
    "id": 25,
    "name": "light",
    "path": "svg/hult-Artboard-25.svg"
  },
  {
    "id": 26,
    "name": "ishihara",
    "path": "svg/hult-Artboard-26.svg"
  },
  {
    "id": 27,
    "name": "block",
    "path": "svg/hult-Artboard-27.svg"
  },
  {
    "id": 28,
    "name": "crown",
    "path": "svg/hult-Artboard-28.svg"
  }
]