<svg id="_1" data-name="1" xmlns="http://www.w3.org/2000/svg" viewBox="0 0 566.93 566.93">
    <path class="palette-3" d="M174 296.81c-9.08 0-17.77 8-17.35 17.34s7.62 17.34 17.35 17.34c9.07 0 17.76-8 17.34-17.34s-7.61-17.34-17.34-17.34zM232.84 296.61c-10 0-19.51 8.76-19.05 19.05s8.37 19.06 19.05 19.06c10 0 19.52-8.76 19.06-19.06s-8.38-19.05-19.06-19.05zM295.25 299.05c-17.68 0-17.71 27.48 0 27.48s17.75-27.48 0-27.48zM358.08 299.08c-17.65 0-17.68 27.42 0 27.42s17.68-27.42 0-27.42z"/>
    <path class="palette-1" d="M145.46 354.62c-17.82 0-17.85 27.69 0 27.69s17.84-27.69 0-27.69zM256.42 347.86A15.17 15.17 0 1 0 271.58 363a15.4 15.4 0 0 0-15.16-15.14zM317.91 346.16c-9.3 0-18.21 8.18-17.78 17.77s7.81 17.78 17.78 17.78c9.29 0 18.2-8.18 17.77-17.78s-7.81-17.77-17.77-17.77zM381.57 349.89c-9.23 0-18.07 8.12-17.64 17.64s7.75 17.65 17.64 17.65c9.23 0 18.07-8.12 17.65-17.65s-7.76-17.64-17.65-17.64z"/>
    <path class="cls-3" d="M213.77 240.82c-8.72 0-17.08 7.67-16.68 16.67s7.33 16.68 16.68 16.68c8.72 0 17.08-7.67 16.68-16.68s-7.33-16.67-16.68-16.67zM281.23 241.24c-18.23 0-18.26 28.33 0 28.33s18.26-28.33 0-28.33zM342.56 250.24a15.52 15.52 0 1 0 15.52 15.52 15.76 15.76 0 0 0-15.52-15.52z"/>
    <path class="palette-1" d="M199.31 352.85a15.62 15.62 0 1 0 15.62 15.62 15.86 15.86 0 0 0-15.62-15.62z"/>
    <path class="palette-8" d="M245 189.11c-18.65 0-18.68 29 0 29s18.67-29 0-29zM311.36 186.68c-8.86 0-17.34 7.78-16.93 16.92s7.44 16.92 16.93 16.92c8.85 0 17.33-7.78 16.92-16.92s-7.44-16.92-16.92-16.92z"/>
    <path d="M281.23 147.46c-18.68 0-18.71 29 0 29s18.71-29 0-29z" class="palette-6"/>
</svg>