<svg xmlns="http://www.w3.org/2000/svg" viewBox="0 0 566.93 566.93">
    <path d="M356.42 133.58c-.4-2-2.47-4.23-4.51-4.51-.25 0-.49-.06-.73-.08a10.82 10.82 0 0 0-4.79-2.78 11.47 11.47 0 0 0-5.76 0 10.47 10.47 0 0 0-1.46.39c-8.42.83-14.84 8-12.53 16.72a14.55 14.55 0 0 0 19.82 9.29l.64-.31c6.9-2.48 10.83-11.4 9.32-18.72z" class="palette-6"/>
    <path class="palette-3" d="M372.23 380.66c-5.92-3.24-14.32-3.84-20.84-4.06-8.1-.27-16.18.73-24.23 1.45-8.43.76-16.84.73-25.29.74h-55c-9.32 0-18.64-.07-27.95-.33-7.79-.22-15.73-.17-23.47-1.11-5.79-.71-11.73-1.73-17.49-.14-8.29 2.29-12.82 9.57-12.65 17.95a10.09 10.09 0 0 0 5 8.39 8.31 8.31 0 0 0 .24 1c1.73 5.34 6.39 7.43 11.65 6.61 47.3-7.36 97-4.32 145.29-3.54 13.81.22 27.62.26 41.42-.14 4-.12 8.24-2.84 9.13-6.95 1.7-7.47 1.86-15.67-5.81-19.87z"/>
    <path class="palette-2" d="M365.72 329.4v-.06.07zM370.79 310.61c-2.88-.8-5.93-.57-8.87-.41-4.12.22-8.26.14-12.38.14-9.36 0-18.71 0-28.06.24-18.35.54-36.69 1.74-55.06 1.73-20.82 0-41.64-.21-62.47 0-7.1.06-14.28-.52-21.31.79a21.84 21.84 0 0 0-6.58 2.34 8.51 8.51 0 0 0-4.2-1.13 8.88 8.88 0 0 0-8.76 8.77c0 7.21-.08 14.43.06 21.65a8.94 8.94 0 0 0 8.76 8.76c18.92.6 37.77-1.27 56.64-2.29 18.45-1 36.95-.58 55.42-1.11q13.53-.39 27.06-.95c6-.24 12-.77 18-.51 8.16.36 16.3 1.15 24.47.81 8.68-.36 19.16-1.53 25.34-8.41 8.22-9.17 4.25-27.03-8.06-30.42zM365 329.82c-.14.08-.53.22-.82.35l-.19.06a1.19 1.19 0 0 1 1.09-.45z"/>
    <path class="palette-3" d="M374.17 260c-.88-3.09-4.23-6.2-7.68-5.85-31.6 3.14-63.38 1.24-95.05 2.49-16.17.63-32.31.16-48.48.14-11.39 0-23.08-1.58-34.42-.34-7.24.79-14.64 2.58-19 8.95-4 5.87-3.37 13.33-2.5 20 .59 4.43 3.19 7.74 8 8 49 2.25 98-.12 147-1.28 13.82-.33 27.65-.56 41.49-.56 6.09 0 8.57-5.63 7.42-10.2a13.27 13.27 0 0 0 3.17-3.57c3.19-5.46 1.68-12.09.05-17.78z"/>
    <path d="M358.83 194.06c-4.07-2.42-8.9-3.4-13.53-4.05a162.71 162.71 0 0 0-17.91-1.44c-10.26-.31-20.35-.31-30.57-1.28-18-1.7-36-3.75-54.12-4.56-10.61-.47-21.35-1.19-32-.73-9.31.4-24.75 1.95-27.78 12.43a9.28 9.28 0 0 0-8.16 6.67c-2 6.8-2.73 14.76 2.63 20.28 4.83 5 12.12 5.31 18.6 5.27 18.59-.12 37.18-.52 55.77-.76 18.92-.26 37.85-.24 56.77-.25h27.08c5.92 0 12.05.29 17.84-1.19 7.09-1.8 13-7.07 13.4-14.76a17.13 17.13 0 0 0-8.02-15.63zm-44.41 13.07v-.27h.67c4.79 0 9.58.09 14.37.27h.57-10.87z" class="palette-2"/>
    <path d="M192.53 127.87c-4.85 0-9.49 4.26-9.26 9.26a9.42 9.42 0 0 0 9.26 9.26c4.84 0 9.48-4.26 9.26-9.26a9.42 9.42 0 0 0-9.26-9.26z" class="palette-5"/>
    <path d="M249.07 121.83c-8 0-15.67 7-15.3 15.3s6.73 15.3 15.3 15.3c8 0 15.67-7 15.3-15.3s-6.72-15.3-15.3-15.3z" class="palette-1"/>
    <path d="M295.05 124c-6.85 0-13.41 6-13.09 13.09s5.75 13.1 13.09 13.1c6.85 0 13.42-6 13.1-13.1S302.39 124 295.05 124z" class="palette-4"/>
</svg>