<svg xmlns="http://www.w3.org/2000/svg" viewBox="0 0 566.93 566.93">
    <path d="M382.91 309.94c-.68-27.87-9.83-56.28-23-80.69-12.63-23.46-31-44.2-54.34-57.37-42.78-24.09-96.49-15.32-132.39 17.25-38.46 34.9-47.16 93.23-27.94 140.31 22 53.84 78.56 86.68 135.61 87.07 4.28 0 4.92-5.58 1.95-7.33 25.25-6 50.6-13.53 70.85-30.47 20.66-17.25 29.91-42.24 29.26-68.77zm-29.4 58.32c-22 21.68-53.15 28.87-82.23 35.56a3.48 3.48 0 0 0-2.74 4.22c-42.59-3.93-83.83-26.44-106.67-63.2-25.23-40.6-25.74-97 3.6-135.72 26.51-35 75.63-52.59 117.8-38.62 49.73 16.5 79.34 67.44 89.12 116.4 5.75 28.78 2.96 59.81-18.88 81.36z" class="palette-2"/>
    <path d="M311.06 193.87c-38.73-26.38-92.12-27-130.14 1.28-41.22 30.71-47.92 86.14-29.86 131.44a4.74 4.74 0 0 0-1.84 3.76c-1.49 58 69.9 76.39 114.65 84.31 26.28 4.65 52.23 1.81 71.59-18.12 17.76-18.3 27.59-44.42 31.31-69.28 7.67-51.38-12.25-103.78-55.71-133.39zm-24.8 213c-14.53 0-28.75-3.58-42.76-7.05-13.56-3.36-27.29-6.79-40.11-12.45-19-8.39-37.19-23.39-42.52-43.62 3.68 1 8.3-3 5.88-7.41-21-38.1-22.58-90.43 9.12-123.39 28.81-29.94 76.59-37 113.78-19.62 42.06 19.64 67.93 62.9 68.75 108.86.78 43.36-20.27 104.64-72.14 104.64z" class="palette-6"/>
    <path class="palette-7" d="M362.83 283.71c-7.31-46.77-36-90.56-81.07-108.19C240 159.21 188 171.93 164.68 212c-30.54 52.55-1.17 112.9 24.36 160.54a4.77 4.77 0 0 0 1 1.24c.07.09.12.19.19.29 28 34.81 77.52 46.53 117.87 27.31 19.19-9.14 35.71-24.79 45.3-43.82 11.45-22.76 13.32-48.92 9.43-73.85zM317.75 385c-38.3 27.33-91.25 19.23-120.72-17.09-21.31-39.76-45-85-32.49-131.44 11.38-42.13 55.31-65.56 97.2-57.16 44.08 8.84 75.65 45.44 87.8 87.37 12.24 42.2 6.13 91.25-31.79 118.32z"/>
    <path class="palette-5" d="M408.08 286.09c-.91-25.86-4.29-54.35-18.3-76.72-12.89-20.59-34.75-33.74-58.12-39.11-26.72-6.15-54.55-1.91-80.16 7-24.35 8.44-49.64 19.88-69.36 36.77-10.11 8.66-18.41 19.31-23.28 31.76-5.61 14.32-6.4 30.09-5.79 45.31a308.66 308.66 0 0 0 21.11 99.9c1.72 4.41 8 3.45 8.7-.15 48.19 21.64 103.55 36.43 154.67 15.9 21.91-8.8 41.52-23.48 53.87-43.85 13.89-22.9 17.58-50.46 16.66-76.81zm-16.21 55.64c-8.14 22.29-24.36 39.84-45.11 51.09-52.19 28.31-113.21 11.82-163.82-11.53a4.4 4.4 0 0 0-3.16-.25A301.19 301.19 0 0 1 163 308.19c-2.5-25.23-3.48-52.9 12.29-74.31 13.92-18.91 36.34-30.29 57.25-39.7 24-10.83 50.22-19 76.85-18 22.77.78 46.22 8.79 62.63 25 17.82 17.62 23.43 43 26 67.1 2.58 24.45 2.39 50.07-6.15 73.45z"/>
    <path class="palette-3" d="M382.5 207.19c-10.73-22.63-30.61-38.9-54.21-46.77-26.47-8.83-55.37-6.27-81.36 3-24.64 8.74-48.3 23.12-64.86 43.63-15.59 19.31-23.3 43.57-23.81 68.24-1.26 61.13 39.19 111.38 86.08 146 1.15.85 2.26-1.08 1.12-1.93l-1.77-1.36c49.56 8.76 99-18 125.18-59.79 14-22.26 21.83-48 24.34-74.11 2.48-25.75.48-53.3-10.71-76.91zM376.62 339c-23 50.76-77 87.49-133.89 76.57a1.13 1.13 0 0 0-1.28.73c-38.1-29-71.55-68.32-79.28-116.93-4-25-1.22-51.55 10.61-74.19 11.69-22.37 31.65-39.06 53.8-50.54 46-23.83 111.28-26.9 145.26 19 15 20.22 19.87 46.18 20 70.87.16 25.49-4.68 51.18-15.22 74.49z"/>
    <path class="palette-3" d="M377.19 234.68c-7-24.91-19.89-48.87-42.21-63.11-24.33-15.57-54.52-17.29-82.4-13.57-15.64 2.08-31 5.7-46.34 9.38-12.82 3.08-25.93 6.62-37.24 13.52-24.37 14.93-30.68 43.06-34.68 69.4-4.24 28-6.06 57.77 3.42 85 22.51 64.67 94 83 154.46 91.69a7.16 7.16 0 0 0 7.83-5c19.73-4.26 37.58-15 51.51-30 18.76-20.09 29-46 32.47-73 3.57-27.84.77-57.26-6.82-84.31zM350 373.38c-14.89 20.61-38.08 35.94-63.85 37.39a6.55 6.55 0 0 0-3.93 1.5c-45.68-7.31-95.46-20.14-122.09-60.78-14-21.42-17.19-47.15-15.84-72.22a293.7 293.7 0 0 1 4.88-38.52c2.24-11.88 5.2-23.94 11.79-34.22 13.73-21.46 42.9-25.32 65.77-30.44 26.45-5.92 54.37-10.28 80.92-2.47 50.67 14.9 64.16 73.3 64.67 120 .31 28.02-5.68 56.71-22.32 79.76z"/>
    <path d="M380 206.2a112.65 112.65 0 0 0-68.12-53.36c-55.09-15.28-115.57 7.68-150.74 51.75-17.28 21.65-28.53 47.19-31.3 74.86-2.66 26.62 3.48 54 15.78 77.62 14 26.84 36.71 48.58 64.63 60.36 34 14.35 71.81 14.28 107.88 10.18 5.46-.63 10.18-4.24 10.18-10.18v-.26c44.45-21.71 70.62-71.12 72.57-120.74 1.12-30.83-5.58-63.3-20.88-90.23zm-19.15 155.2c-14.87 23-38.16 39.9-65.14 45.31a9.21 9.21 0 0 0-5 2.59c-44 1.39-88.58-7.52-116.68-45.08-28.24-37.76-32.41-88.9-8.79-129.93 24.13-41.91 71.07-68.78 119.65-65.54 24.91 1.67 48.78 12 65.5 30.72 17.84 20 26.85 47.85 29.39 74.19 2.95 30.34-2.19 61.81-18.93 87.74z"  class="palette-7"/>
</svg>